[
    {"path":"/blog", "descr":"Blog"},
    {"path":"/asusctl", "descr":"Asusctl"},
    {"path":"/wiki", "descr":"Guides"},
    {"path":"/faq", "descr":"FAQ"},
    {"path":"/legal", "descr":"Legal"}
]